open_source_fpga_environment/Codificador_y_decodificador/Transmisor/src/build/top_tb.vcd
$date
	Fri Mar 20 14:01:24 2026
$end
$version
	Icarus Verilog
$end
$timescale
	1ps
$end
$scope module top_tb $end
$var wire 1 ! Sg $end
$var wire 1 " Sf $end
$var wire 1 # Se $end
$var wire 1 $ Sd $end
$var wire 1 % Sc $end
$var wire 1 & Sb $end
$var wire 1 ' Sa $end
$var reg 7 ( out [6:0] $end
$var reg 4 ) sw [3:0] $end
$scope function expected $end
$upscope $end
$scope module dut $end
$var wire 1 * i_data0 $end
$var wire 1 + i_data1 $end
$var wire 1 , i_data2 $end
$var wire 1 - i_data3 $end
$var wire 1 . i_pos0 $end
$var wire 1 / i_pos1 $end
$var wire 1 0 i_pos2 $end
$var wire 1 1 o_tx6 $end
$var wire 1 2 o_tx5 $end
$var wire 1 3 o_tx4 $end
$var wire 1 4 o_tx3 $end
$var wire 1 5 o_tx2 $end
$var wire 1 6 o_tx1 $end
$var wire 1 7 o_tx0 $end
$var wire 1 ! o_seg_g $end
$var wire 1 " o_seg_f $end
$var wire 1 # o_seg_e $end
$var wire 1 $ o_seg_d $end
$var wire 1 % o_seg_c $end
$var wire 1 & o_seg_b $end
$var wire 1 ' o_seg_a $end
$var wire 1 8 h6 $end
$var wire 1 9 h5 $end
$var wire 1 : h4 $end
$var wire 1 ; h3 $end
$var wire 1 < h2 $end
$var wire 1 = h1 $end
$var wire 1 > h0 $end
$scope module ENC $end
$var wire 1 * i_data0 $end
$var wire 1 + i_data1 $end
$var wire 1 , i_data2 $end
$var wire 1 - i_data3 $end
$var wire 1 > o_h0 $end
$var wire 1 = o_h1 $end
$var wire 1 < o_h2 $end
$var wire 1 ; o_h3 $end
$var wire 1 : o_h4 $end
$var wire 1 9 o_h5 $end
$var wire 1 8 o_h6 $end
$var wire 1 ? o_parity $end
$var wire 1 @ p1 $end
$var wire 1 A p2 $end
$var wire 1 B p4 $end
$upscope $end
$scope module ERR $end
$var wire 1 > i_h0 $end
$var wire 1 = i_h1 $end
$var wire 1 < i_h2 $end
$var wire 1 ; i_h3 $end
$var wire 1 : i_h4 $end
$var wire 1 9 i_h5 $end
$var wire 1 8 i_h6 $end
$var wire 1 . i_pos0 $end
$var wire 1 / i_pos1 $end
$var wire 1 0 i_pos2 $end
$var wire 1 C inv0 $end
$var wire 1 D inv1 $end
$var wire 1 E inv2 $end
$var wire 1 F inv3 $end
$var wire 1 G inv4 $end
$var wire 1 H inv5 $end
$var wire 1 I inv6 $end
$var wire 1 7 o_h0 $end
$var wire 1 6 o_h1 $end
$var wire 1 5 o_h2 $end
$var wire 1 4 o_h3 $end
$var wire 1 3 o_h4 $end
$var wire 1 2 o_h5 $end
$var wire 1 1 o_h6 $end
$var wire 1 J pos0n $end
$var wire 1 K pos1n $end
$var wire 1 L pos2n $end
$upscope $end
$scope module SEG $end
$var wire 1 M d0n $end
$var wire 1 N d1n $end
$var wire 1 O d2n $end
$var wire 1 P d3n $end
$var wire 1 * i_d0 $end
$var wire 1 + i_d1 $end
$var wire 1 , i_d2 $end
$var wire 1 - i_d3 $end
$var wire 1 ' o_seg_a $end
$var wire 1 & o_seg_b $end
$var wire 1 % o_seg_c $end
$var wire 1 $ o_seg_d $end
$var wire 1 # o_seg_e $end
$var wire 1 " o_seg_f $end
$var wire 1 ! o_seg_g $end
$upscope $end
$upscope $end
$scope begin $ivl_for_loop0 $end
$var integer 32 Q i [31:0] $end
$upscope $end
$upscope $end
$enddefinitions $end
$comment Show the parameter values. $end
$dumpall
$end
#0
$dumpvars
b0 Q
1P
1O
1N
1M
1L
1K
1J
0I
0H
0G
0F
0E
0D
0C
0B
0A
0@
0?
0>
0=
0<
0;
0:
09
08
07
06
05
04
03
02
01
00
0/
0.
0-
0,
0+
0*
b0 )
bx (
1'
1&
1%
1$
1#
1"
0!
$end
#1000
0'
0"
1?
0#
0$
17
16
1>
1@
1=
1A
15
0M
1<
1*
b1 )
b1 Q
b1111110 (
#2000
1'
1#
0%
1$
06
14
1?
1!
0=
0A
1;
1B
05
1M
13
0N
0<
0*
1:
1+
b10 )
b10 Q
b110000 (
#3000
0?
0#
1%
07
16
0>
0@
1=
1A
15
0M
1<
1*
b11 )
b11 Q
b1101101 (
#4000
0'
1"
0$
1?
05
1M
03
1N
12
0O
0<
0*
0:
0+
19
1,
b100 )
b100 Q
b1111001 (
#5000
0?
0&
1$
17
06
1>
1@
0=
0A
15
0M
1<
1*
b101 )
b101 Q
b110011 (
#6000
1#
1'
16
04
0?
1"
1=
1A
0;
0B
05
1M
13
0N
0<
0*
1:
1+
b110 )
b110 Q
b11011 (
#7000
1?
0$
0#
0"
07
06
1&
0>
0@
0=
0A
15
0M
1<
1*
b111 )
b111 Q
b1011111 (
#8000
1$
1"
1#
1&
17
16
14
05
1M
03
1N
02
1O
1>
1@
1=
1A
1;
1B
0?
11
0P
0<
0*
0:
0+
09
0,
18
1-
b1000 )
b1000 Q
b1110001 (
#9000
1?
0#
07
06
0>
0@
0=
0A
15
0M
1<
1*
b1001 )
b1001 Q
b1111111 (
#10000
0$
16
04
1?
1'
1=
1A
1&
0;
0B
1#
05
1M
13
0N
0<
0*
1:
1+
b1010 )
b1010 Q
b1111011 (
#11000
0'
0&
0?
17
06
1>
1@
0=
0A
1$
15
0M
1<
1*
b1011 )
b1011 Q
b1110111 (
#12000
1'
0%
1$
0!
1?
05
1M
03
1N
12
0O
0<
0*
0:
0+
19
1,
b1100 )
b1100 Q
b11111 (
#13000
0"
0?
07
16
1%
0>
0@
1=
1A
1&
1!
15
0M
1<
1*
b1101 )
b1101 Q
b1001110 (
#14000
1"
06
1'
0%
14
0?
0=
0A
0&
1;
1B
05
1M
13
0N
0<
0*
1:
1+
b1110 )
b1110 Q
b1111101 (
#15000
1?
0$
17
16
1>
1@
1=
1A
15
0M
1<
1*
b1111 )
b1111 Q
b1001111 (
#16000
b10000 Q
b1000111 (
