open_source_fpga_environment/CALCULADORA/Receptor/src/build/top_tb.vcd
$date
	Tue Jun 16 00:21:55 2026
$end
$version
	Icarus Verilog
$end
$timescale
	1ps
$end
$scope module divider_tb $end
$var wire 5 ! remainder [4:0] $end
$var wire 4 " rem_uni [3:0] $end
$var wire 4 # rem_dec [3:0] $end
$var wire 7 $ quotient [6:0] $end
$var wire 1 % done $end
$var reg 1 & clk $end
$var reg 7 ' dividend [6:0] $end
$var reg 5 ( divisor [4:0] $end
$var reg 1 ) rst $end
$var reg 1 * valid $end
$scope module DUT $end
$var wire 1 & clk $end
$var wire 7 + dividend [6:0] $end
$var wire 5 , divisor [4:0] $end
$var wire 1 - q0 $end
$var wire 1 . q1 $end
$var wire 1 / q2 $end
$var wire 1 0 q3 $end
$var wire 1 1 q4 $end
$var wire 1 2 q5 $end
$var wire 1 3 q6 $end
$var wire 1 ) rst $end
$var wire 1 * valid $end
$var wire 6 4 sub6 [5:0] $end
$var wire 6 5 sub5 [5:0] $end
$var wire 6 6 sub4 [5:0] $end
$var wire 6 7 sub3 [5:0] $end
$var wire 6 8 sub2 [5:0] $end
$var wire 6 9 sub1 [5:0] $end
$var wire 6 : sub0 [5:0] $end
$var wire 6 ; rsh6 [5:0] $end
$var wire 6 < rsh5 [5:0] $end
$var wire 6 = rsh4 [5:0] $end
$var wire 6 > rsh3 [5:0] $end
$var wire 6 ? rsh2 [5:0] $end
$var wire 6 @ rsh1 [5:0] $end
$var wire 6 A rsh0 [5:0] $end
$var wire 5 B r_final [4:0] $end
$var wire 6 C r7w [5:0] $end
$var wire 6 D r6w [5:0] $end
$var wire 6 E r5w [5:0] $end
$var wire 6 F r4w [5:0] $end
$var wire 6 G r3w [5:0] $end
$var wire 6 H r2w [5:0] $end
$var wire 6 I r1w [5:0] $end
$var wire 7 J q_final [6:0] $end
$var reg 5 K div1 [4:0] $end
$var reg 6 L div1_bits [5:0] $end
$var reg 5 M div2 [4:0] $end
$var reg 5 N div2_bits [4:0] $end
$var reg 5 O div3 [4:0] $end
$var reg 4 P div3_bits [3:0] $end
$var reg 5 Q div4 [4:0] $end
$var reg 3 R div4_bits [2:0] $end
$var reg 5 S div5 [4:0] $end
$var reg 2 T div5_bits [1:0] $end
$var reg 5 U div6 [4:0] $end
$var reg 1 V div6_bit $end
$var reg 1 % done $end
$var reg 1 W q1_r $end
$var reg 1 X q2_r $end
$var reg 1 Y q2_r6 $end
$var reg 1 Z q3_r $end
$var reg 1 [ q3_r5 $end
$var reg 1 \ q3_r6 $end
$var reg 1 ] q4_r $end
$var reg 1 ^ q4_r4 $end
$var reg 1 _ q4_r5 $end
$var reg 1 ` q4_r6 $end
$var reg 1 a q5_r $end
$var reg 1 b q5_r3 $end
$var reg 1 c q5_r4 $end
$var reg 1 d q5_r5 $end
$var reg 1 e q5_r6 $end
$var reg 1 f q6_r $end
$var reg 1 g q6_r2 $end
$var reg 1 h q6_r3 $end
$var reg 1 i q6_r4 $end
$var reg 1 j q6_r5 $end
$var reg 1 k q6_r6 $end
$var reg 7 l quotient [6:0] $end
$var reg 6 m r1_r [5:0] $end
$var reg 6 n r2_r [5:0] $end
$var reg 6 o r3_r [5:0] $end
$var reg 6 p r4_r [5:0] $end
$var reg 6 q r5_r [5:0] $end
$var reg 6 r r6_r [5:0] $end
$var reg 4 s rem_dec [3:0] $end
$var reg 4 t rem_dec_comb [3:0] $end
$var reg 4 u rem_uni [3:0] $end
$var reg 4 v rem_uni_comb [3:0] $end
$var reg 5 w remainder [4:0] $end
$var reg 1 x valid1 $end
$var reg 1 y valid2 $end
$var reg 1 z valid3 $end
$var reg 1 { valid4 $end
$var reg 1 | valid5 $end
$var reg 1 } valid6 $end
$upscope $end
$upscope $end
$enddefinitions $end
$comment Show the parameter values. $end
$dumpall
$end
#0
$dumpvars
x}
x|
x{
xz
xy
xx
bx w
b0 v
bx u
b0 t
bx s
bx r
bx q
bx p
bx o
bx n
bx m
bx l
xk
xj
xi
xh
xg
xf
xe
xd
xc
xb
xa
x`
x_
x^
x]
x\
x[
xZ
xY
xX
xW
xV
bx U
bx T
bx S
bx R
bx Q
bx P
bx O
bx N
bx M
bx L
bx K
bx J
b0 I
bx H
bx G
bx F
bx E
bx D
bx C
bx B
b0 A
bx @
bx ?
bx >
bx =
bx <
bx ;
b0 :
bx 9
bx 8
bx 7
bx 6
bx 5
bx 4
13
x2
x1
x0
x/
x.
x-
b0 ,
b0 +
0*
0)
b0 (
b0 '
0&
x%
bx $
bx #
bx "
bx !
$end
#18000
12
11
10
1/
1.
1-
b0 H
b0 G
b0 F
b0 E
b0 D
b0 B
b0 9
b0 @
b0 8
b0 ?
b0 7
b0 >
b0 6
b0 =
b0 5
b0 <
b0 C
b0 4
0x
0f
b0 L
b0 K
b0 m
0y
0a
0g
b0 N
b0 M
b0 n
0z
0]
0b
0h
b0 P
b0 O
b0 o
0{
0Z
0^
0c
0i
b0 R
b0 Q
b0 p
0|
0X
0[
0_
0d
0j
b0 T
b0 S
b0 q
0}
0W
0Y
0\
0`
0e
b1 J
0k
b0 ;
0V
b0 U
b0 r
0%
b0 "
b0 u
b0 #
b0 s
b0 !
b0 w
b0 $
b0 l
1&
#36000
0&
#54000
1&
#72000
0&
#90000
1&
#108000
0&
#126000
1&
#144000
0&
#162000
1&
#180000
0&
#198000
1)
1&
#216000
0&
#234000
1f
1a
1]
1Z
1X
b11 J
1W
1&
#252000
0&
#270000
b111 J
1Y
1[
1^
1b
1g
1&
#288000
0&
#306000
1h
1c
1_
b1111 J
1\
1&
#324000
0&
#342000
b11111 J
1`
1d
1i
03
b1 I
b1 A
1*
b111010 :
b111 (
b111 ,
b1100100 '
b1100100 +
1&
#360000
0&
#378000
02
b11 H
b11 @
0f
b100100 L
b111100 9
b111 K
b1 m
1j
b111111 J
1e
0*
1&
#396000
0&
#414000
01
b110 G
b110 ?
b1111111 J
1k
0a
0g
b100 N
b111111 8
b111 M
b11 n
1&
#432000
0&
#450000
b101 F
b1100 >
0]
0b
0h
b100 P
b101 7
b111 O
b110 o
1&
#468000
0&
#486000
b100 E
b1011 =
0^
0c
0i
b100 R
b100 6
b111 Q
b101 p
1&
#504000
0&
#522000
b1 D
b1000 <
0_
0d
0j
b1 5
b111 S
b100 q
1&
#540000
0&
#558000
b10 v
b0 t
0-
b10 B
b10 C
b10 ;
0`
0e
b1110 J
0k
b111011 4
b111 U
b1 r
1&
